PCBNEW-LibModule-V1  Tue Feb  9 13:22:10 2016
# encoding utf-8
Units mm
$INDEX
344B-01
344B-01-Davoust
BP4-Davoust
C2-Davoust
C2-trimm-Davoust
D5-Davoust
DB9FC-Davoust
DIP-16-Davoust
DIP-40__600-Davoust
JACK_ALIM-Davoust
PIN_ARRAY-6X1-Davoust
PIN_ARRAY-8X1-Davoust
PIN_ARRAY-9X1-Davoust
PIN_ARRAY_10x2-Davoust
PIN_ARRAY_2X1-Davoust
PIN_ARRAY_2X2-Davoust
PIN_ARRAY_5x2-Davoust
PIN_ARRAY_5x2_0.5-Davoust
Quartz-Davoust
R1-Davoust
R5-Davoust
TO220_VERT-Davoust
TO92-droit
TO92-droit-Davoust
TRIMMER-Davoust
bornier2
bornier2-Davoust
microSD-Davoust
pin1-Davoust
pin_array_3x2-Davoust
so8-200-Davoust
test-cms
$EndINDEX
$MODULE 344B-01
Po 0 0 0 15 523AFF48 00000000 ~~
Li 344B-01
Sc 0
AR 344B-01
Op 0 0 0
T0 0 2.54 1.524 1.524 0 0.3048 N V 21 N "344B-01"
T1 0 -2.54 1.524 1.524 0 0.3048 N V 21 N "VAL**"
DS -21.59 -7.62 -21.59 -1.27 0.381 21
DS -21.59 -1.27 -8.89 -1.27 0.381 21
DS -8.89 -8.89 -8.89 -15.24 0.381 21
DS -8.89 -15.24 -8.89 -7.62 0.381 21
DS -8.89 -7.62 -21.59 -7.62 0.381 21
DS 8.89 -6.35 15.24 -6.35 0.381 21
DS 15.24 -6.35 15.24 6.35 0.381 21
DS 15.24 6.35 8.89 6.35 0.381 21
DS 8.89 15.24 -8.89 15.24 0.381 21
DS -8.89 15.24 -8.89 -15.24 0.381 21
DS -8.89 -15.24 8.89 -15.24 0.381 21
DS 8.89 -13.97 8.89 -15.24 0.381 21
DS 8.89 0 8.89 -13.97 0.381 21
DS 8.89 -13.97 8.89 15.24 0.381 21
$PAD
Sh "3" C 2.00152 2.00152 0 0 0
Dr 0.8001 0 0
At STD N 00E0FFFF
Ne 0 ""
Po 12.7 -1.27
$EndPAD
$PAD
Sh "2" C 2.00152 2.00152 0 0 0
Dr 0.8001 0 0
At STD N 00E0FFFF
Ne 0 ""
Po 12.7 1.27
$EndPAD
$PAD
Sh "4" C 2.00152 2.00152 0 0 0
Dr 0.8001 0 0
At STD N 00E0FFFF
Ne 0 ""
Po 12.7 -3.81
$EndPAD
$PAD
Sh "1" R 2.00152 2.00152 0 0 0
Dr 0.8001 0 0
At STD N 00E0FFFF
Ne 0 ""
Po 12.7 3.81
$EndPAD
$EndMODULE 344B-01
$MODULE 344B-01-Davoust
Po 0 0 0 15 523AFF48 00000000 ~~
Li 344B-01-Davoust
Sc 0
AR 344B-01
Op 0 0 0
T0 0 2.54 1.524 1.524 0 0.3048 N V 21 N "344B-01"
T1 0 -2.54 1.524 1.524 0 0.3048 N V 21 N "VAL**"
DS -21.59 -7.62 -21.59 -1.27 0.381 21
DS -21.59 -1.27 -8.89 -1.27 0.381 21
DS -8.89 -8.89 -8.89 -15.24 0.381 21
DS -8.89 -15.24 -8.89 -7.62 0.381 21
DS -8.89 -7.62 -21.59 -7.62 0.381 21
DS 8.89 -6.35 15.24 -6.35 0.381 21
DS 15.24 -6.35 15.24 6.35 0.381 21
DS 15.24 6.35 8.89 6.35 0.381 21
DS 8.89 15.24 -8.89 15.24 0.381 21
DS -8.89 15.24 -8.89 -15.24 0.381 21
DS -8.89 -15.24 8.89 -15.24 0.381 21
DS 8.89 -13.97 8.89 -15.24 0.381 21
DS 8.89 0 8.89 -13.97 0.381 21
DS 8.89 -13.97 8.89 15.24 0.381 21
$PAD
Sh "3" C 2.00152 2.00152 0 0 0
Dr 0.8001 0 0
At STD N 00E0FFFF
Ne 0 ""
Po 12.7 -1.27
$EndPAD
$PAD
Sh "2" C 2.00152 2.00152 0 0 0
Dr 0.8001 0 0
At STD N 00E0FFFF
Ne 0 ""
Po 12.7 1.27
$EndPAD
$PAD
Sh "4" C 2.00152 2.00152 0 0 0
Dr 0.8001 0 0
At STD N 00E0FFFF
Ne 0 ""
Po 12.7 -3.81
$EndPAD
$PAD
Sh "1" R 2.00152 2.00152 0 0 0
Dr 0.8001 0 0
At STD N 00E0FFFF
Ne 0 ""
Po 12.7 3.81
$EndPAD
$EndMODULE 344B-01-Davoust
$MODULE BP4-Davoust
Po 0 0 0 15 529A104C 00000000 ~~
Li BP4-Davoust
Sc 0
AR 
Op 0 0 0
T0 0 0 1 1 0 0.15 N V 21 N "BP4-Davoust"
T1 0 0 1 1 0 0.15 N V 21 N "VAL**"
DC 0 -4.4 1.1 -3.9 0.15 21
DS -3 -1.15 3 -1.15 0.15 21
DS 3 -1.15 3 -7.15 0.15 21
DS 3 -7.15 -3 -7.15 0.15 21
DS -3 -7.15 -3 -1.2 0.15 21
$PAD
Sh "1" C 2 2 0 0 0
Dr 0.8 0 0
At STD N 00E0FFFF
Ne 0 ""
Po 2.25 -0.95
$EndPAD
$PAD
Sh "2" C 2 2 0 0 0
Dr 0.8 0 0
At STD N 00E0FFFF
Ne 0 ""
Po -2.25 -7.35
$EndPAD
$PAD
Sh "3" C 2 2 0 0 0
Dr 0.8 0 0
At STD N 00E0FFFF
Ne 0 ""
Po -2.25 -0.95
$EndPAD
$PAD
Sh "4" C 2 2 0 0 0
Dr 0.8 0 0
At STD N 00E0FFFF
Ne 0 ""
Po 2.25 -7.35
$EndPAD
$EndMODULE BP4-Davoust
$MODULE C2-Davoust
Po 0 0 0 15 5299F0B5 00000000 ~~
Li C2-Davoust
Cd Condensateur = 2 pas
Kw C
Sc 0
AR 
Op 0 0 0
T0 0 0 1.016 1.016 0 0.2032 N V 21 N "C2"
T1 0 0 1.016 1.016 0 0.2032 N I 21 N "C***"
DS -3.556 -1.016 3.556 -1.016 0.3048 21
DS 3.556 -1.016 3.556 1.016 0.3048 21
DS 3.556 1.016 -3.556 1.016 0.3048 21
DS -3.556 1.016 -3.556 -1.016 0.3048 21
DS -3.556 -0.508 -3.048 -1.016 0.3048 21
$PAD
Sh "1" C 2 2 0 0 0
Dr 0.8128 0 0
At STD N 00E0FFFF
Ne 0 ""
Po -2.54 0
$EndPAD
$PAD
Sh "2" C 2 2 0 0 0
Dr 0.8128 0 0
At STD N 00E0FFFF
Ne 0 ""
Po 2.54 0
$EndPAD
$SHAPE3D
Na "discret/capa_2pas_5x5mm.wrl"
Sc 1 1 1
Of 0 0 0
Ro 0 0 0
$EndSHAPE3D
$EndMODULE C2-Davoust
$MODULE C2-trimm-Davoust
Po 0 0 0 15 5299F115 00000000 ~~
Li C2-trimm-Davoust
Cd Condensateur polarise
Kw CP
Sc 0
AR 
Op 0 0 0
T0 0 2.54 1.016 1.016 0 0.2032 N V 21 N "C2V8"
T1 0 -2.54 1.016 1.016 0 0.2032 N V 21 N "C***"
DC 0 0 3.15 -0.1 0.15 21
$PAD
Sh "1" R 1.778 1.778 0 0 0
Dr 1.016 0 0
At STD N 00E0FFFF
Ne 0 ""
Po -2.54 0
$EndPAD
$PAD
Sh "2" C 1.778 1.778 0 0 0
Dr 1.016 0 0
At STD N 00E0FFFF
Ne 0 ""
Po 2.54 0
$EndPAD
$SHAPE3D
Na "discret/c_vert_c2v10.wrl"
Sc 1 1 1
Of 0 0 0
Ro 0 0 0
$EndSHAPE3D
$EndMODULE C2-trimm-Davoust
$MODULE D5-Davoust
Po 0 0 0 15 52443DE5 00000000 ~~
Li D5-Davoust
Cd Diode 5 pas
Kw DIODE DEV
Sc 0
AR /5231CB69
Op 0 0 0
T0 0 0 1.524 1.016 0 0.254 N V 21 N "ZENNER1"
T1 -0.3302 -2.70002 1.524 1.016 0 0.254 N I 21 N "5.1 V"
DS 6.35 0 5.08 0 0.3048 21
DS 5.08 0 5.08 -1.27 0.3048 21
DS 5.08 -1.27 -5.08 -1.27 0.3048 21
DS -5.08 -1.27 -5.08 0 0.3048 21
DS -5.08 0 -6.35 0 0.3048 21
DS -5.08 0 -5.08 1.27 0.3048 21
DS -5.08 1.27 5.08 1.27 0.3048 21
DS 5.08 1.27 5.08 0 0.3048 21
DS 3.81 -1.27 3.81 1.27 0.3048 21
DS 4.064 -1.27 4.064 1.27 0.3048 21
$PAD
Sh "1" C 1.99898 1.99898 0 0 0
Dr 0.8 0 0
At STD N 00E0FFFF
Ne 1 "GND"
Po -6.35 0
$EndPAD
$PAD
Sh "2" R 1.99898 1.778 0 0 0
Dr 0.8 0 0
At STD N 00E0FFFF
Ne 2 "N-000003"
Po 6.35 0
$EndPAD
$SHAPE3D
Na "discret/diode.wrl"
Sc 0 1 1
Of 0 0 0
Ro 0 0 0
$EndSHAPE3D
$EndMODULE D5-Davoust
$MODULE DB9FC-Davoust
Po 0 0 0 15 524D8695 00000000 ~~
Li DB9FC-Davoust
Cd Connecteur DB9 femelle couche
Kw CONN DB9
Sc 0
AR 
Op 0 0 0
T0 1.27 -10.16 1.524 1.524 0 0.3048 N V 21 N "DB9FC"
T1 1.27 -3.81 1.524 1.524 0 0.3048 N V 21 N "VAL**"
DS -16.129 2.286 16.383 2.286 0.3048 21
DS 16.383 2.286 16.383 -15.494 0.3048 21
DS 16.383 -15.494 -16.129 -15.494 0.3048 21
DS -16.129 -15.494 -16.129 2.286 0.3048 21
DS -9.017 -15.494 -9.017 -7.874 0.3048 21
DS -9.017 -7.874 9.271 -7.874 0.3048 21
DS 9.271 -7.874 9.271 -15.494 0.3048 21
DS -7.493 -15.494 -7.493 -24.13 0.3048 21
DS -7.493 -24.13 7.747 -24.13 0.3048 21
DS 7.747 -24.13 7.747 -15.494 0.3048 21
$PAD
Sh "" C 3 3 0 0 0
Dr 1.3 0 0
At STD N 00E0FFFF
Ne 0 ""
Po 12.827 -1.27
$EndPAD
$PAD
Sh "" C 3 3 0 0 0
Dr 1.3 0 0
At STD N 00E0FFFF
Ne 0 ""
Po -12.573 -1.27
$EndPAD
$PAD
Sh "1" R 2 2 0 0 0
Dr 0.8 0 0
At STD N 00E0FFFF
Ne 0 ""
Po -5.461 1.27
$EndPAD
$PAD
Sh "2" C 2 2 0 0 0
Dr 0.8 0 0
At STD N 00E0FFFF
Ne 0 ""
Po -2.667 1.27
$EndPAD
$PAD
Sh "3" C 2 2 0 0 0
Dr 0.8 0 0
At STD N 00E0FFFF
Ne 0 ""
Po 0 1.27
$EndPAD
$PAD
Sh "4" C 2 2 0 0 0
Dr 0.8 0 0
At STD N 00E0FFFF
Ne 0 ""
Po 2.794 1.27
$EndPAD
$PAD
Sh "5" C 2 2 0 0 0
Dr 0.8 0 0
At STD N 00E0FFFF
Ne 0 ""
Po 5.588 1.27
$EndPAD
$PAD
Sh "6" C 2 2 0 0 0
Dr 0.8 0 0
At STD N 00E0FFFF
Ne 0 ""
Po -4.064 -1.27
$EndPAD
$PAD
Sh "7" C 2 2 0 0 0
Dr 0.8 0 0
At STD N 00E0FFFF
Ne 0 ""
Po -1.27 -1.27
$EndPAD
$PAD
Sh "8" C 2 2 0 0 0
Dr 0.8 0 0
At STD N 00E0FFFF
Ne 0 ""
Po 1.397 -1.27
$EndPAD
$PAD
Sh "9" C 2 2 0 0 0
Dr 0.8 0 0
At STD N 00E0FFFF
Ne 0 ""
Po 4.191 -1.27
$EndPAD
$SHAPE3D
Na "conn_DBxx/db9_female_pin90deg.wrl"
Sc 1 1 1
Of 0 0 0
Ro 0 0 0
$EndSHAPE3D
$EndMODULE DB9FC-Davoust
$MODULE DIP-16-Davoust
Po 0 0 0 15 524D83A4 00000000 ~~
Li DIP-16-Davoust
Cd 16 pins DIL package, round pads
Kw DIL
Sc 0
AR 
Op 0 0 0
T0 -6.35 -1.27 1.524 1.143 0 0.3048 N V 21 N "U***"
T1 2.54 1.27 1.524 1.143 0 0.3048 N V 21 N "DIP-16_300"
DS -11.43 -1.27 -11.43 -1.27 0.381 21
DS -11.43 -1.27 -10.16 -1.27 0.381 21
DS -10.16 -1.27 -10.16 1.27 0.381 21
DS -10.16 1.27 -11.43 1.27 0.381 21
DS -11.43 -2.54 11.43 -2.54 0.381 21
DS 11.43 -2.54 11.43 2.54 0.381 21
DS 11.43 2.54 -11.43 2.54 0.381 21
DS -11.43 2.54 -11.43 -2.54 0.381 21
$PAD
Sh "1" R 2 2 0 0 0
Dr 0.8 0 0
At STD N 00E0FFFF
Ne 0 ""
Po -8.89 3.81
$EndPAD
$PAD
Sh "2" C 2 2 0 0 0
Dr 0.8 0 0
At STD N 00E0FFFF
Ne 0 ""
Po -6.35 3.81
$EndPAD
$PAD
Sh "3" C 2 2 0 0 0
Dr 0.8 0 0
At STD N 00E0FFFF
Ne 0 ""
Po -3.81 3.81
$EndPAD
$PAD
Sh "4" C 2 2 0 0 0
Dr 0.8 0 0
At STD N 00E0FFFF
Ne 0 ""
Po -1.27 3.81
$EndPAD
$PAD
Sh "5" C 2 2 0 0 0
Dr 0.8 0 0
At STD N 00E0FFFF
Ne 0 ""
Po 1.27 3.81
$EndPAD
$PAD
Sh "6" C 2 2 0 0 0
Dr 0.8 0 0
At STD N 00E0FFFF
Ne 0 ""
Po 3.81 3.81
$EndPAD
$PAD
Sh "7" C 2 2 0 0 0
Dr 0.8 0 0
At STD N 00E0FFFF
Ne 0 ""
Po 6.35 3.81
$EndPAD
$PAD
Sh "8" C 2 2 0 0 0
Dr 0.8 0 0
At STD N 00E0FFFF
Ne 0 ""
Po 8.89 3.81
$EndPAD
$PAD
Sh "9" C 2 2 0 0 0
Dr 0.8 0 0
At STD N 00E0FFFF
Ne 0 ""
Po 8.89 -3.81
$EndPAD
$PAD
Sh "10" C 2 2 0 0 0
Dr 0.8 0 0
At STD N 00E0FFFF
Ne 0 ""
Po 6.35 -3.81
$EndPAD
$PAD
Sh "11" C 2 2 0 0 0
Dr 0.8 0 0
At STD N 00E0FFFF
Ne 0 ""
Po 3.81 -3.81
$EndPAD
$PAD
Sh "12" C 2 2 0 0 0
Dr 0.8 0 0
At STD N 00E0FFFF
Ne 0 ""
Po 1.27 -3.81
$EndPAD
$PAD
Sh "13" C 2 2 0 0 0
Dr 0.8 0 0
At STD N 00E0FFFF
Ne 0 ""
Po -1.27 -3.81
$EndPAD
$PAD
Sh "14" C 2 2 0 0 0
Dr 0.8 0 0
At STD N 00E0FFFF
Ne 0 ""
Po -3.81 -3.81
$EndPAD
$PAD
Sh "15" C 2 2 0 0 0
Dr 0.8 0 0
At STD N 00E0FFFF
Ne 0 ""
Po -6.35 -3.81
$EndPAD
$PAD
Sh "16" C 2 2 0 0 0
Dr 0.8 0 0
At STD N 00E0FFFF
Ne 0 ""
Po -8.89 -3.81
$EndPAD
$SHAPE3D
Na "dil/dil_16.wrl"
Sc 1 1 1
Of 0 0 0
Ro 0 0 0
$EndSHAPE3D
$EndMODULE DIP-16-Davoust
$MODULE DIP-40__600-Davoust
Po 0 0 0 15 524D852C 00000000 ~~
Li DIP-40__600-Davoust
Cd Module Dil 40 pins, pads ronds, e=600 mils
Kw DIL
Sc 0
AR 
Op 0 0 0
T0 -19.05 -3.81 1.778 1.143 0 0.3048 N V 21 N "U***"
T1 13.97 2.54 1.778 1.778 0 0.3048 N V 21 N "DIP-40_600"
DS -26.67 -1.27 -25.4 -1.27 0.381 21
DS -25.4 -1.27 -25.4 1.27 0.381 21
DS -25.4 1.27 -26.67 1.27 0.381 21
DS -26.67 -6.35 26.67 -6.35 0.381 21
DS 26.67 -6.35 26.67 6.35 0.381 21
DS 26.67 6.35 -26.67 6.35 0.381 21
DS -26.67 6.35 -26.67 -6.35 0.381 21
$PAD
Sh "1" R 2 2 0 0 0
Dr 0.8 0 0
At STD N 00E0FFFF
Ne 0 ""
Po -24.13 7.62
$EndPAD
$PAD
Sh "2" C 2 2 0 0 0
Dr 0.8 0 0
At STD N 00E0FFFF
Ne 0 ""
Po -21.59 7.62
$EndPAD
$PAD
Sh "3" C 2 2 0 0 0
Dr 0.8 0 0
At STD N 00E0FFFF
Ne 0 ""
Po -19.05 7.62
$EndPAD
$PAD
Sh "4" C 2 2 0 0 0
Dr 0.8 0 0
At STD N 00E0FFFF
Ne 0 ""
Po -16.51 7.62
$EndPAD
$PAD
Sh "5" C 2 2 0 0 0
Dr 0.8 0 0
At STD N 00E0FFFF
Ne 0 ""
Po -13.97 7.62
$EndPAD
$PAD
Sh "6" C 2 2 0 0 0
Dr 0.8 0 0
At STD N 00E0FFFF
Ne 0 ""
Po -11.43 7.62
$EndPAD
$PAD
Sh "7" C 2 2 0 0 0
Dr 0.8 0 0
At STD N 00E0FFFF
Ne 0 ""
Po -8.89 7.62
$EndPAD
$PAD
Sh "8" C 2 2 0 0 0
Dr 0.8 0 0
At STD N 00E0FFFF
Ne 0 ""
Po -6.35 7.62
$EndPAD
$PAD
Sh "9" C 2 2 0 0 0
Dr 0.8 0 0
At STD N 00E0FFFF
Ne 0 ""
Po -3.81 7.62
$EndPAD
$PAD
Sh "10" C 2 2 0 0 0
Dr 0.8 0 0
At STD N 00E0FFFF
Ne 0 ""
Po -1.27 7.62
$EndPAD
$PAD
Sh "11" C 2 2 0 0 0
Dr 0.8 0 0
At STD N 00E0FFFF
Ne 0 ""
Po 1.27 7.62
$EndPAD
$PAD
Sh "12" C 2 2 0 0 0
Dr 0.8 0 0
At STD N 00E0FFFF
Ne 0 ""
Po 3.81 7.62
$EndPAD
$PAD
Sh "13" C 2 2 0 0 0
Dr 0.8 0 0
At STD N 00E0FFFF
Ne 0 ""
Po 6.35 7.62
$EndPAD
$PAD
Sh "14" C 2 2 0 0 0
Dr 0.8 0 0
At STD N 00E0FFFF
Ne 0 ""
Po 8.89 7.62
$EndPAD
$PAD
Sh "15" C 2 2 0 0 0
Dr 0.8 0 0
At STD N 00E0FFFF
Ne 0 ""
Po 11.43 7.62
$EndPAD
$PAD
Sh "16" C 2 2 0 0 0
Dr 0.8 0 0
At STD N 00E0FFFF
Ne 0 ""
Po 13.97 7.62
$EndPAD
$PAD
Sh "17" C 2 2 0 0 0
Dr 0.8 0 0
At STD N 00E0FFFF
Ne 0 ""
Po 16.51 7.62
$EndPAD
$PAD
Sh "18" C 2 2 0 0 0
Dr 0.8 0 0
At STD N 00E0FFFF
Ne 0 ""
Po 19.05 7.62
$EndPAD
$PAD
Sh "19" C 2 2 0 0 0
Dr 0.8 0 0
At STD N 00E0FFFF
Ne 0 ""
Po 21.59 7.62
$EndPAD
$PAD
Sh "20" C 2 2 0 0 0
Dr 0.8 0 0
At STD N 00E0FFFF
Ne 0 ""
Po 24.13 7.62
$EndPAD
$PAD
Sh "21" C 2 2 0 0 0
Dr 0.8 0 0
At STD N 00E0FFFF
Ne 0 ""
Po 24.13 -7.62
$EndPAD
$PAD
Sh "22" C 2 2 0 0 0
Dr 0.8 0 0
At STD N 00E0FFFF
Ne 0 ""
Po 21.59 -7.62
$EndPAD
$PAD
Sh "23" C 2 2 0 0 0
Dr 0.8 0 0
At STD N 00E0FFFF
Ne 0 ""
Po 19.05 -7.62
$EndPAD
$PAD
Sh "24" C 2 2 0 0 0
Dr 0.8 0 0
At STD N 00E0FFFF
Ne 0 ""
Po 16.51 -7.62
$EndPAD
$PAD
Sh "25" C 2 2 0 0 0
Dr 0.8 0 0
At STD N 00E0FFFF
Ne 0 ""
Po 13.97 -7.62
$EndPAD
$PAD
Sh "26" C 2 2 0 0 0
Dr 0.8 0 0
At STD N 00E0FFFF
Ne 0 ""
Po 11.43 -7.62
$EndPAD
$PAD
Sh "27" C 2 2 0 0 0
Dr 0.8 0 0
At STD N 00E0FFFF
Ne 0 ""
Po 8.89 -7.62
$EndPAD
$PAD
Sh "28" C 2 2 0 0 0
Dr 0.8 0 0
At STD N 00E0FFFF
Ne 0 ""
Po 6.35 -7.62
$EndPAD
$PAD
Sh "29" C 2 2 0 0 0
Dr 0.8 0 0
At STD N 00E0FFFF
Ne 0 ""
Po 3.81 -7.62
$EndPAD
$PAD
Sh "30" C 2 2 0 0 0
Dr 0.8 0 0
At STD N 00E0FFFF
Ne 0 ""
Po 1.27 -7.62
$EndPAD
$PAD
Sh "31" C 2 2 0 0 0
Dr 0.8 0 0
At STD N 00E0FFFF
Ne 0 ""
Po -1.27 -7.62
$EndPAD
$PAD
Sh "32" C 2 2 0 0 0
Dr 0.8 0 0
At STD N 00E0FFFF
Ne 0 ""
Po -3.81 -7.62
$EndPAD
$PAD
Sh "33" C 2 2 0 0 0
Dr 0.8 0 0
At STD N 00E0FFFF
Ne 0 ""
Po -6.35 -7.62
$EndPAD
$PAD
Sh "34" C 2 2 0 0 0
Dr 0.8 0 0
At STD N 00E0FFFF
Ne 0 ""
Po -8.89 -7.62
$EndPAD
$PAD
Sh "35" C 2 2 0 0 0
Dr 0.8 0 0
At STD N 00E0FFFF
Ne 0 ""
Po -11.43 -7.62
$EndPAD
$PAD
Sh "36" C 2 2 0 0 0
Dr 0.8 0 0
At STD N 00E0FFFF
Ne 0 ""
Po -13.97 -7.62
$EndPAD
$PAD
Sh "37" C 2 2 0 0 0
Dr 0.8 0 0
At STD N 00E0FFFF
Ne 0 ""
Po -16.51 -7.62
$EndPAD
$PAD
Sh "38" C 2 2 0 0 0
Dr 0.8 0 0
At STD N 00E0FFFF
Ne 0 ""
Po -19.05 -7.62
$EndPAD
$PAD
Sh "39" C 2 2 0 0 0
Dr 0.8 0 0
At STD N 00E0FFFF
Ne 0 ""
Po -21.59 -7.62
$EndPAD
$PAD
Sh "40" C 2 2 0 0 0
Dr 0.8 0 0
At STD N 00E0FFFF
Ne 0 ""
Po -24.13 -7.62
$EndPAD
$SHAPE3D
Na "dil/dil_40-w600.wrl"
Sc 1 1 1
Of 0 0 0
Ro 0 0 0
$EndSHAPE3D
$EndMODULE DIP-40__600-Davoust
$MODULE JACK_ALIM-Davoust
Po 0 0 0 15 524D8EA5 00000000 ~~
Li JACK_ALIM-Davoust
Cd module 1 pin (ou trou mecanique de percage)
Kw CONN JACK
Sc 0
AR 
Op 0 0 0
T0 0.254 -5.588 1.016 1.016 0 0.254 N V 21 N "J1"
T1 -5.08 5.588 1.016 1.016 0 0.254 N V 21 N "JACK_2P"
DS -7.112 -4.318 -7.874 -4.318 0.381 21
DS -7.874 -4.318 -7.874 4.318 0.381 21
DS -7.874 4.318 -7.112 4.318 0.381 21
DS -4.064 -4.318 -4.064 4.318 0.381 21
DS 5.588 -4.318 5.588 4.318 0.381 21
DS -7.112 4.318 5.588 4.318 0.381 21
DS -7.112 -4.318 5.588 -4.318 0.381 21
$PAD
Sh "2" C 4.8006 4.8006 0 0 0
Dr 1.016 0 0 O 1.016 2.54
At STD N 00E0FFFF
Ne 0 ""
Po 0 0
$EndPAD
$PAD
Sh "1" R 4.8006 4.8006 0 0 0
Dr 1.016 0 0 O 1.016 2.54
At STD N 00E0FFFF
Ne 0 ""
Po 6.096 0
$EndPAD
$PAD
Sh "3" C 4.8006 4.8006 0 0 0
Dr 2.54 0 0 O 2.54 1.016
At STD N 00E0FFFF
Ne 0 ""
Po 2.286 5.08
$EndPAD
$SHAPE3D
Na "connectors/POWER_21.wrl"
Sc 0.8 0.8 0.8
Of 0 0 0
Ro 0 0 0
$EndSHAPE3D
$EndMODULE JACK_ALIM-Davoust
$MODULE PIN_ARRAY-6X1-Davoust
Po 0 0 0 15 52B08F8B 00000000 ~~
Li PIN_ARRAY-6X1-Davoust
Cd Connecteur 6 pins
Kw CONN DEV
Sc 0
AR 
Op 0 0 0
T0 0 -2.159 1.016 1.016 0 0.2032 N V 21 N "PIN_ARRAY-6X1"
T1 0 2.159 1.016 0.889 0 0.2032 N I 21 N "Val**"
DS -7.62 1.27 -7.62 -1.27 0.3048 21
DS -7.62 -1.27 7.62 -1.27 0.3048 21
DS 7.62 -1.27 7.62 1.27 0.3048 21
DS 7.62 1.27 -7.62 1.27 0.3048 21
DS -5.08 1.27 -5.08 -1.27 0.3048 21
$PAD
Sh "1" R 2 2 0 0 0
Dr 1 0 0
At STD N 00E0FFFF
Ne 0 ""
Po -6.35 0
$EndPAD
$PAD
Sh "2" C 2 2 0 0 0
Dr 1 0 0
At STD N 00E0FFFF
Ne 0 ""
Po -3.81 0
$EndPAD
$PAD
Sh "3" C 2 2 0 0 0
Dr 1 0 0
At STD N 00E0FFFF
Ne 0 ""
Po -1.27 0
$EndPAD
$PAD
Sh "4" C 2 2 0 0 0
Dr 1 0 0
At STD N 00E0FFFF
Ne 0 ""
Po 1.27 0
$EndPAD
$PAD
Sh "5" C 2 2 0 0 0
Dr 1 0 0
At STD N 00E0FFFF
Ne 0 ""
Po 3.81 0
$EndPAD
$PAD
Sh "6" C 2 2 0 0 0
Dr 1 0 0
At STD N 00E0FFFF
Ne 0 ""
Po 6.35 0
$EndPAD
$SHAPE3D
Na "pin_array/pins_array_6x1.wrl"
Sc 1 1 1
Of 0 0 0
Ro 0 0 0
$EndSHAPE3D
$EndMODULE PIN_ARRAY-6X1-Davoust
$MODULE PIN_ARRAY-8X1-Davoust
Po 0 0 0 15 52B09448 00000000 ~~
Li PIN_ARRAY-8X1-Davoust
Cd Connecteur 6 pins
Kw CONN DEV
Sc 0
AR 
Op 0 0 0
T0 0 -2.159 1.016 1.016 0 0.2032 N V 21 N "PIN_ARRAY-8X1"
T1 0 2.159 1.016 0.889 0 0.2032 N I 21 N "Val**"
DS 5.08 -1.27 10.16 -1.27 0.15 21
DS 10.16 -1.27 10.16 1.27 0.15 21
DS 10.16 1.27 5.08 1.27 0.15 21
DS -10.16 1.27 -10.16 -1.27 0.3048 21
DS -10.16 -1.27 5.08 -1.27 0.3048 21
DS 5.08 1.27 -10.16 1.27 0.3048 21
DS -7.62 1.27 -7.62 -1.27 0.3048 21
$PAD
Sh "1" R 2 2 0 0 0
Dr 1 0 0
At STD N 00E0FFFF
Ne 0 ""
Po -8.89 0
$EndPAD
$PAD
Sh "2" C 2 2 0 0 0
Dr 1 0 0
At STD N 00E0FFFF
Ne 0 ""
Po -6.35 0
$EndPAD
$PAD
Sh "3" C 2 2 0 0 0
Dr 1 0 0
At STD N 00E0FFFF
Ne 0 ""
Po -3.81 0
$EndPAD
$PAD
Sh "4" C 2 2 0 0 0
Dr 1 0 0
At STD N 00E0FFFF
Ne 0 ""
Po -1.27 0
$EndPAD
$PAD
Sh "5" C 2 2 0 0 0
Dr 1 0 0
At STD N 00E0FFFF
Ne 0 ""
Po 1.27 0
$EndPAD
$PAD
Sh "6" C 2 2 0 0 0
Dr 1 0 0
At STD N 00E0FFFF
Ne 0 ""
Po 3.81 0
$EndPAD
$PAD
Sh "7" C 2 2 0 0 0
Dr 1 0 0
At STD N 00E0FFFF
Ne 0 ""
Po 6.35 0
$EndPAD
$PAD
Sh "8" C 2 2 0 0 0
Dr 1 0 0
At STD N 00E0FFFF
Ne 0 ""
Po 8.89 0
$EndPAD
$SHAPE3D
Na "pin_array/pins_array_6x1.wrl"
Sc 1 1 1
Of 0 0 0
Ro 0 0 0
$EndSHAPE3D
$EndMODULE PIN_ARRAY-8X1-Davoust
$MODULE PIN_ARRAY-9X1-Davoust
Po 0 0 0 15 52B0B075 00000000 ~~
Li PIN_ARRAY-9X1-Davoust
Cd Connecteur 6 pins
Kw CONN DEV
Sc 0
AR 
Op 0 0 0
T0 0 -2.159 1.016 1.016 0 0.2032 N V 21 N "PIN_ARRAY-9X1"
T1 0 2.159 1.016 0.889 0 0.2032 N I 21 N "Val**"
DS 10.16 -1.27 12.7 -1.27 0.15 21
DS 12.7 -1.27 12.7 1.27 0.15 21
DS 12.7 1.27 10.16 1.27 0.15 21
DS 5.08 -1.27 10.16 -1.27 0.15 21
DS 10.16 1.27 5.08 1.27 0.15 21
DS -10.16 1.27 -10.16 -1.27 0.3048 21
DS -10.16 -1.27 5.08 -1.27 0.3048 21
DS 5.08 1.27 -10.16 1.27 0.3048 21
DS -7.62 1.27 -7.62 -1.27 0.3048 21
$PAD
Sh "1" R 2 2 0 0 0
Dr 1 0 0
At STD N 00E0FFFF
Ne 0 ""
Po -8.89 0
$EndPAD
$PAD
Sh "2" C 2 2 0 0 0
Dr 1 0 0
At STD N 00E0FFFF
Ne 0 ""
Po -6.35 0
$EndPAD
$PAD
Sh "3" C 2 2 0 0 0
Dr 1 0 0
At STD N 00E0FFFF
Ne 0 ""
Po -3.81 0
$EndPAD
$PAD
Sh "4" C 2 2 0 0 0
Dr 1 0 0
At STD N 00E0FFFF
Ne 0 ""
Po -1.27 0
$EndPAD
$PAD
Sh "5" C 2 2 0 0 0
Dr 1 0 0
At STD N 00E0FFFF
Ne 0 ""
Po 1.27 0
$EndPAD
$PAD
Sh "6" C 2 2 0 0 0
Dr 1 0 0
At STD N 00E0FFFF
Ne 0 ""
Po 3.81 0
$EndPAD
$PAD
Sh "7" C 2 2 0 0 0
Dr 1 0 0
At STD N 00E0FFFF
Ne 0 ""
Po 6.35 0
$EndPAD
$PAD
Sh "8" C 2 2 0 0 0
Dr 1 0 0
At STD N 00E0FFFF
Ne 0 ""
Po 8.89 0
$EndPAD
$PAD
Sh "9" C 2 2 0 0 0
Dr 1 0 0
At STD N 00E0FFFF
Ne 0 ""
Po 11.43 0
$EndPAD
$SHAPE3D
Na "pin_array/pins_array_6x1.wrl"
Sc 1 1 1
Of 0 0 0
Ro 0 0 0
$EndSHAPE3D
$EndMODULE PIN_ARRAY-9X1-Davoust
$MODULE PIN_ARRAY_10x2-Davoust
Po 0 0 0 15 529CEFD4 00000000 ~~
Li PIN_ARRAY_10x2-Davoust
Sc 0
AR 
Op 0 0 0
T0 0 3.81 1 1 0 0.15 N V 21 N "PIN_ARRAY_10x2-Davoust"
T1 0 3.81 1 1 0 0.15 N V 21 N "VAL**"
DS 12.7 2.54 -12.7 2.54 0.15 21
DS -12.7 2.54 -12.7 -2.54 0.15 21
DS -12.7 -2.54 12.7 -2.54 0.15 21
DS 12.7 -2.54 12.7 2.54 0.15 21
$PAD
Sh "1" R 2 2 0 0 0
Dr 1 0 0
At STD N 00E0FFFF
Ne 0 ""
Po -11.43 1.27
$EndPAD
$PAD
Sh "2" C 2 2 0 0 0
Dr 1 0 0
At STD N 00E0FFFF
Ne 0 ""
Po -11.43 -1.27
$EndPAD
$PAD
Sh "3" C 2 2 0 0 0
Dr 1 0 0
At STD N 00E0FFFF
Ne 0 ""
Po -8.89 1.27
$EndPAD
$PAD
Sh "4" C 2 2 0 0 0
Dr 1 0 0
At STD N 00E0FFFF
Ne 0 ""
Po -8.89 -1.27
$EndPAD
$PAD
Sh "5" C 2 2 0 0 0
Dr 1 0 0
At STD N 00E0FFFF
Ne 0 ""
Po -6.35 1.27
$EndPAD
$PAD
Sh "6" C 2 2 0 0 0
Dr 1 0 0
At STD N 00E0FFFF
Ne 0 ""
Po -6.35 -1.27
$EndPAD
$PAD
Sh "7" C 2 2 0 0 0
Dr 1 0 0
At STD N 00E0FFFF
Ne 0 ""
Po -3.81 1.27
$EndPAD
$PAD
Sh "8" C 2 2 0 0 0
Dr 1 0 0
At STD N 00E0FFFF
Ne 0 ""
Po -3.81 -1.27
$EndPAD
$PAD
Sh "9" C 2 2 0 0 0
Dr 1 0 0
At STD N 00E0FFFF
Ne 0 ""
Po -1.27 1.27
$EndPAD
$PAD
Sh "10" C 2 2 0 0 0
Dr 1 0 0
At STD N 00E0FFFF
Ne 0 ""
Po -1.27 -1.27
$EndPAD
$PAD
Sh "11" C 2 2 0 0 0
Dr 1 0 0
At STD N 00E0FFFF
Ne 0 ""
Po 1.27 1.27
$EndPAD
$PAD
Sh "12" C 2 2 0 0 0
Dr 1 0 0
At STD N 00E0FFFF
Ne 0 ""
Po 1.27 -1.27
$EndPAD
$PAD
Sh "13" C 2 2 0 0 0
Dr 1 0 0
At STD N 00E0FFFF
Ne 0 ""
Po 3.81 1.27
$EndPAD
$PAD
Sh "14" C 2 2 0 0 0
Dr 1 0 0
At STD N 00E0FFFF
Ne 0 ""
Po 3.81 -1.27
$EndPAD
$PAD
Sh "15" C 2 2 0 0 0
Dr 1 0 0
At STD N 00E0FFFF
Ne 0 ""
Po 6.35 1.27
$EndPAD
$PAD
Sh "16" C 2 2 0 0 0
Dr 1 0 0
At STD N 00E0FFFF
Ne 0 ""
Po 6.35 -1.27
$EndPAD
$PAD
Sh "17" C 2 2 0 0 0
Dr 1 0 0
At STD N 00E0FFFF
Ne 0 ""
Po 8.89 1.27
$EndPAD
$PAD
Sh "18" C 2 2 0 0 0
Dr 1 0 0
At STD N 00E0FFFF
Ne 0 ""
Po 8.89 -1.27
$EndPAD
$PAD
Sh "19" C 2 2 0 0 0
Dr 1 0 0
At STD N 00E0FFFF
Ne 0 ""
Po 11.43 1.27
$EndPAD
$PAD
Sh "20" C 2 2 0 0 0
Dr 1 0 0
At STD N 00E0FFFF
Ne 0 ""
Po 11.43 -1.27
$EndPAD
$EndMODULE PIN_ARRAY_10x2-Davoust
$MODULE PIN_ARRAY_2X1-Davoust
Po 0 0 0 15 5299F073 00000000 ~~
Li PIN_ARRAY_2X1-Davoust
Cd Connecteurs 2 pins
Kw CONN DEV
Sc 0
AR 
Op 0 0 0
T0 0 -1.905 0.762 0.762 0 0.1524 N V 21 N "PIN_ARRAY_2"
T1 0 -1.905 0.762 0.762 0 0.1524 N I 21 N "Val**"
DS -2.54 1.27 -2.54 -1.27 0.1524 21
DS -2.54 -1.27 2.54 -1.27 0.1524 21
DS 2.54 -1.27 2.54 1.27 0.1524 21
DS 2.54 1.27 -2.54 1.27 0.1524 21
$PAD
Sh "1" R 2 2 0 0 0
Dr 1.016 0 0
At STD N 00E0FFFF
Ne 0 ""
Po -1.27 0
$EndPAD
$PAD
Sh "2" C 2 2 0 0 0
Dr 1.016 0 0
At STD N 00E0FFFF
Ne 0 ""
Po 1.27 0
$EndPAD
$SHAPE3D
Na "pin_array/pins_array_2x1.wrl"
Sc 1 1 1
Of 0 0 0
Ro 0 0 0
$EndSHAPE3D
$EndMODULE PIN_ARRAY_2X1-Davoust
$MODULE PIN_ARRAY_2X2-Davoust
Po 0 0 0 15 564AF94D 00000000 ~~
Li PIN_ARRAY_2X2-Davoust
Cd Double rangee de contacts 2 x 2 pins
Kw CONN
Sc 0
AR /564AF8EC
Op 0 0 0
T0 -0.381 -3.429 1.016 1.016 0 0.2032 N V 21 N "P3"
T1 0 3.048 1.016 1.016 0 0.2032 N I 21 N "CONN_4"
DS -2.54 -2.54 2.54 -2.54 0.3048 21
DS 2.54 -2.54 2.54 2.54 0.3048 21
DS 2.54 2.54 -2.54 2.54 0.3048 21
DS -2.54 2.54 -2.54 -2.54 0.3048 21
$PAD
Sh "1" R 2 2 0 0 0
Dr 1.016 0 0
At STD N 00E0FFFF
Ne 1 "GND"
Po -1.27 1.27
$EndPAD
$PAD
Sh "2" C 2 2 0 0 0
Dr 1.016 0 0
At STD N 00E0FFFF
Ne 4 "XCK"
Po -1.27 -1.27
$EndPAD
$PAD
Sh "3" C 2 2 0 0 0
Dr 1.016 0 0
At STD N 00E0FFFF
Ne 2 "RXD"
Po 1.27 1.27
$EndPAD
$PAD
Sh "4" C 2 2 0 0 0
Dr 1.016 0 0
At STD N 00E0FFFF
Ne 3 "TXD"
Po 1.27 -1.27
$EndPAD
$SHAPE3D
Na "pin_array/pins_array_2x2.wrl"
Sc 1 1 1
Of 0 0 0
Ro 0 0 0
$EndSHAPE3D
$EndMODULE PIN_ARRAY_2X2-Davoust
$MODULE PIN_ARRAY_5x2-Davoust
Po 0 0 0 15 524D7FC2 00000000 ~~
Li PIN_ARRAY_5x2-Davoust
Cd Double rangee de contacts 2 x 5 pins
Kw CONN
Sc 0
AR 
Op 0 0 0
T0 0.635 -3.81 1.016 1.016 0 0.2032 N V 21 N "PIN_ARRAY_5X2"
T1 0 -3.81 1.016 1.016 0 0.2032 N I 21 N "Val**"
DS -6.35 -2.54 6.35 -2.54 0.3048 21
DS 6.35 -2.54 6.35 2.54 0.3048 21
DS 6.35 2.54 -6.35 2.54 0.3048 21
DS -6.35 2.54 -6.35 -2.54 0.3048 21
$PAD
Sh "1" R 2 2 0 0 0
Dr 0.8 0 0
At STD N 00E0FFFF
Ne 0 ""
Po -5.08 1.27
$EndPAD
$PAD
Sh "2" C 2 2 0 0 0
Dr 0.8 0 0
At STD N 00E0FFFF
Ne 0 ""
Po -5.08 -1.27
$EndPAD
$PAD
Sh "3" C 2 2 0 0 0
Dr 0.8 0 0
At STD N 00E0FFFF
Ne 0 ""
Po -2.54 1.27
$EndPAD
$PAD
Sh "4" C 2 2 0 0 0
Dr 0.8 0 0
At STD N 00E0FFFF
Ne 0 ""
Po -2.54 -1.27
$EndPAD
$PAD
Sh "5" C 2 2 0 0 0
Dr 0.8 0 0
At STD N 00E0FFFF
Ne 0 ""
Po 0 1.27
$EndPAD
$PAD
Sh "6" C 2 2 0 0 0
Dr 0.8 0 0
At STD N 00E0FFFF
Ne 0 ""
Po 0 -1.27
$EndPAD
$PAD
Sh "7" C 2 2 0 0 0
Dr 0.8 0 0
At STD N 00E0FFFF
Ne 0 ""
Po 2.54 1.27
$EndPAD
$PAD
Sh "8" C 2 2 0 0 0
Dr 0.8 0 0
At STD N 00E0FFFF
Ne 0 ""
Po 2.54 -1.27
$EndPAD
$PAD
Sh "9" C 2 2 0 0 0
Dr 0.8 0 0
At STD N 00E0FFFF
Ne 0 ""
Po 5.08 1.27
$EndPAD
$PAD
Sh "10" C 2 2 0 0 0
Dr 0.8 0 0
At STD N 00E0FFFF
Ne 0 ""
Po 5.08 -1.27
$EndPAD
$SHAPE3D
Na "pin_array/pins_array_5x2.wrl"
Sc 1 1 1
Of 0 0 0
Ro 0 0 0
$EndSHAPE3D
$EndMODULE PIN_ARRAY_5x2-Davoust
$MODULE PIN_ARRAY_5x2_0.5-Davoust
Po 0 0 0 15 529CF50D 00000000 ~~
Li PIN_ARRAY_5x2_0.5-Davoust
Sc 0
AR 
Op 0 0 0
T0 0 3.81 1 1 0 0.15 N V 21 N "PIN_ARRAY_5x2_0.5-Davoust"
T1 0 2.54 1 1 0 0.15 N V 21 N "VAL**"
DS 3.175 1.27 -3.175 1.27 0.15 21
DS -3.175 1.27 -3.175 -1.27 0.15 21
DS -3.175 -1.27 3.175 -1.27 0.15 21
DS 3.175 -1.27 3.175 1.27 0.15 21
$PAD
Sh "1" R 1 1 0 0 0
Dr 0.2 0 0
At STD N 00E0FFFF
Ne 0 ""
Po -2.54 0.635
$EndPAD
$PAD
Sh "2" C 1 1 0 0 0
Dr 0.2 0 0
At STD N 00E0FFFF
Ne 0 ""
Po -2.54 -0.635
$EndPAD
$PAD
Sh "3" C 1 1 0 0 0
Dr 0.2 0 0
At STD N 00E0FFFF
Ne 0 ""
Po -1.27 0.635
$EndPAD
$PAD
Sh "4" C 1 1 0 0 0
Dr 0.2 0 0
At STD N 00E0FFFF
Ne 0 ""
Po -1.27 -0.635
$EndPAD
$PAD
Sh "5" C 1 1 0 0 0
Dr 0.2 0 0
At STD N 00E0FFFF
Ne 0 ""
Po 0 0.635
$EndPAD
$PAD
Sh "6" C 1 1 0 0 0
Dr 0.2 0 0
At STD N 00E0FFFF
Ne 0 ""
Po 0 -0.635
$EndPAD
$PAD
Sh "7" C 1 1 0 0 0
Dr 0.2 0 0
At STD N 00E0FFFF
Ne 0 ""
Po 1.27 0.635
$EndPAD
$PAD
Sh "8" C 1 1 0 0 0
Dr 0.2 0 0
At STD N 00E0FFFF
Ne 0 ""
Po 1.27 -0.635
$EndPAD
$PAD
Sh "9" C 1 1 0 0 0
Dr 0.2 0 0
At STD N 00E0FFFF
Ne 0 ""
Po 2.54 0.635
$EndPAD
$PAD
Sh "10" C 1 1 0 0 0
Dr 0.2 0 0
At STD N 00E0FFFF
Ne 0 ""
Po 2.54 -0.635
$EndPAD
$EndMODULE PIN_ARRAY_5x2_0.5-Davoust
$MODULE Quartz-Davoust
Po 0 0 0 15 524D8CD6 00000000 ~~
Li Quartz-Davoust
Sc 0
AR 
Op 0 0 0
T0 0 0 1 1 0 0.15 N V 21 N "Quartz-Davoust"
T1 0 0 1 1 0 0.15 N V 21 N "VAL**"
DS -5.08 -2.286 -5.334 -2.286 0.15 21
DS -5.334 -2.286 -5.334 2.032 0.15 21
DS -5.334 2.032 -5.08 2.032 0.15 21
DS 5.08 -2.286 5.334 -2.286 0.15 21
DS 5.334 -2.286 5.334 2.032 0.15 21
DS 5.334 2.032 5.08 2.032 0.15 21
DS 0 -2.286 -5.08 -2.286 0.15 21
DS -5.08 2.032 5.08 2.032 0.15 21
DS 5.08 -2.286 0 -2.286 0.15 21
$PAD
Sh "1" C 2 2 0 0 0
Dr 0.8 0 0
At STD N 00E0FFFF
Ne 0 ""
Po -2.54 0
$EndPAD
$PAD
Sh "2" C 2 2 0 0 0
Dr 0.8 0 0
At STD N 00E0FFFF
Ne 0 ""
Po 2.54 0
$EndPAD
$EndMODULE Quartz-Davoust
$MODULE R1-Davoust
Po 0 0 0 15 569E422E 00000000 ~~
Li R1-Davoust
Cd Resistance verticale
Kw R
Sc 0
AR 
Op A A 0
T0 -1.016 2.54 1.397 1.27 0 0.2032 N V 21 N "R1"
T1 -1.143 2.54 1.397 1.27 0 0.2032 N I 21 N "VAL*"
DS -1.27 0 1.27 0 0.381 21
DC -1.27 0 -0.635 1.27 0.381 21
$PAD
Sh "1" C 2 2 0 0 0
Dr 0.8128 0 0
At STD N 00E0FFFF
Ne 0 ""
Po -1.27 0
$EndPAD
$PAD
Sh "2" C 2 2 0 0 0
Dr 0.8128 0 0
At STD N 00E0FFFF
Ne 0 ""
Po 1.27 0
$EndPAD
$SHAPE3D
Na "discret/verti_resistor.wrl"
Sc 1 1 1
Of 0 0 0
Ro 0 0 0
$EndSHAPE3D
$EndMODULE R1-Davoust
$MODULE R5-Davoust
Po 0 0 0 15 524D81F0 00000000 ~~
Li R5-Davoust
Cd Resistance 5 pas
Kw R
Sc 0
AR 
Op 0 A 0
T0 0 0 1.397 1.27 0 0.2032 N V 21 N "R5"
T1 0 0 1.397 1.27 0 0.2032 N I 21 N "Val*"
DS -6.35 0 -5.334 0 0.3048 21
DS 6.35 0 5.334 0 0.3048 21
DS 5.334 -1.27 5.334 1.27 0.3048 21
DS 5.334 1.27 -5.334 1.27 0.3048 21
DS -5.334 1.27 -5.334 -1.27 0.3048 21
DS -5.334 -1.27 5.334 -1.27 0.3048 21
DS -5.334 -0.762 -4.826 -1.27 0.3048 21
$PAD
Sh "1" C 2 2 0 0 0
Dr 0.8 0 0
At STD N 00E0FFFF
Ne 0 ""
Po -6.35 0
$EndPAD
$PAD
Sh "2" C 2 2 0 0 0
Dr 0.8 0 0
At STD N 00E0FFFF
Ne 0 ""
Po 6.35 0
$EndPAD
$SHAPE3D
Na "discret/resistor.wrl"
Sc 0.5 0.5 0.5
Of 0 0 0
Ro 0 0 0
$EndSHAPE3D
$EndMODULE R5-Davoust
$MODULE TO220_VERT-Davoust
Po 0 0 0 15 52B0B630 00000000 ~~
Li TO220_VERT-Davoust
Cd Regulateur TO220 serie LM78xx
Kw TR TO220
Sc 0
AR /52B0AD23
Op 0 0 0
T0 -3.175 0 1.524 1.016 900 0.2032 N V 21 N "U1"
T1 0.635 -6.35 1.524 1.016 0 0.2032 N V 21 N "7805"
DS 1.905 -5.08 2.54 -5.08 0.381 21
DS 2.54 -5.08 2.54 5.08 0.381 21
DS 2.54 5.08 1.905 5.08 0.381 21
DS -1.905 -5.08 1.905 -5.08 0.381 21
DS 1.905 -5.08 1.905 5.08 0.381 21
DS 1.905 5.08 -1.905 5.08 0.381 21
DS -1.905 5.08 -1.905 -5.08 0.381 21
$PAD
Sh "2" C 2 2 0 0 0
Dr 1 0 0
At STD N 00E0FFFF
Ne 1 "GND"
Po 0 0
$EndPAD
$PAD
Sh "3" C 2 2 0 0 0
Dr 1 0 0
At STD N 00E0FFFF
Ne 2 "N-0000021"
Po 0 -2.54
$EndPAD
$PAD
Sh "1" R 2 2 0 0 0
Dr 1 0 0
At STD N 00E0FFFF
Ne 3 "VCC"
Po 0 2.54
$EndPAD
$EndMODULE TO220_VERT-Davoust
$MODULE TO92-droit
Po 0 0 0 15 523AF4C2 523AF2E8 ~~
Li TO92-droit
Cd Transistor TO92 brochage type BC237
Kw TR TO92
Sc 523AF2E8
AR 
Op 0 0 0
T0 -1.27 3.81 1.016 1.016 0 0.2032 N V 21 N "TO92-droit"
T1 -1.27 -5.08 1.016 1.016 0 0.2032 N V 21 N "VAL**"
DS 0 1.905 3.81 1.905 0.381 21
DS 3.81 1.905 5.08 0.635 0.381 21
DS 5.08 0.635 5.08 -1.27 0.381 21
DS 5.08 -1.27 3.175 -3.175 0.381 21
DS 3.175 -3.175 -3.175 -3.175 0.381 21
DS -3.175 -3.175 -5.08 -1.27 0.381 21
DS -5.08 -1.27 -5.08 0.635 0.381 21
DS -5.08 0.635 -3.81 1.905 0.381 21
DS -3.81 1.905 0 1.905 0.381 21
$PAD
Sh "2" C 2.00152 2.00152 0 0 0
Dr 0.8001 0 0
At STD N 00E0FFFF
Ne 0 ""
Po 0 0
$EndPAD
$PAD
Sh "1" R 2.00152 2.00152 0 0 0
Dr 0.8001 0 0
At STD N 00E0FFFF
Ne 0 ""
Po 2.54 0
$EndPAD
$PAD
Sh "3" C 2.00152 2.00152 0 0 0
Dr 0.8001 0 0
At STD N 00E0FFFF
Ne 0 ""
Po -2.54 0
$EndPAD
$SHAPE3D
Na "discret/to98.wrl"
Sc 1 1 1
Of 0 0 0
Ro 0 0 0
$EndSHAPE3D
$EndMODULE TO92-droit
$MODULE TO92-droit-Davoust
Po 0 0 0 15 523AF4C2 00000000 ~~
Li TO92-droit-Davoust
Cd Transistor TO92 brochage type BC237
Kw TR TO92
Sc 0
AR 
Op 0 0 0
T0 -1.27 3.81 1.016 1.016 0 0.2032 N V 21 N "TO92-droit"
T1 -1.27 -5.08 1.016 1.016 0 0.2032 N V 21 N "VAL**"
DS 0 1.905 3.81 1.905 0.381 21
DS 3.81 1.905 5.08 0.635 0.381 21
DS 5.08 0.635 5.08 -1.27 0.381 21
DS 5.08 -1.27 3.175 -3.175 0.381 21
DS 3.175 -3.175 -3.175 -3.175 0.381 21
DS -3.175 -3.175 -5.08 -1.27 0.381 21
DS -5.08 -1.27 -5.08 0.635 0.381 21
DS -5.08 0.635 -3.81 1.905 0.381 21
DS -3.81 1.905 0 1.905 0.381 21
$PAD
Sh "2" C 2.00152 2.00152 0 0 0
Dr 0.8001 0 0
At STD N 00E0FFFF
Ne 0 ""
Po 0 0
$EndPAD
$PAD
Sh "1" R 2.00152 2.00152 0 0 0
Dr 0.8001 0 0
At STD N 00E0FFFF
Ne 0 ""
Po 2.54 0
$EndPAD
$PAD
Sh "3" C 2.00152 2.00152 0 0 0
Dr 0.8001 0 0
At STD N 00E0FFFF
Ne 0 ""
Po -2.54 0
$EndPAD
$SHAPE3D
Na "discret/to98.wrl"
Sc 1 1 1
Of 0 0 0
Ro 0 0 0
$EndSHAPE3D
$EndMODULE TO92-droit-Davoust
$MODULE TRIMMER-Davoust
Po 0 0 0 15 52444847 00000000 ~~
Li TRIMMER-Davoust
Sc 0
AR /5231CB37
Op 0 0 0
T0 -0.4699 -8.2042 1.524 1.524 0 0.3048 N V 21 N "Roffset1"
T1 -0.1397 -5.3086 1.524 1.524 0 0.3048 N V 21 N "1k"
DS 7.2136 4.5974 -8.4836 4.5974 0.381 21
DS 7.2263 -0.762 8.5471 -0.762 0.381 21
DS 8.5471 -0.762 8.5471 2.159 0.381 21
DS 8.5471 2.159 7.2009 2.1336 0.381 21
DS -8.4455 -3.4417 -8.4836 4.6355 0.381 21
DS 7.2136 -3.5179 7.2136 4.5593 0.381 21
DS -8.4074 -3.4798 7.239 -3.4798 0.381 21
$PAD
Sh "2" C 1.99898 1.99898 0 0 1800
Dr 0.8 0 0
At STD N 00E0FFFF
Ne 2 "N-000009"
Po 0.32766 2.1844
$EndPAD
$PAD
Sh "3" C 1.99898 1.99898 0 0 1800
Dr 0.8 0 0
At STD N 00E0FFFF
Ne 1 "N-000006"
Po 5.39496 -0.9144
$EndPAD
$PAD
Sh "1" C 1.99898 1.99898 0 0 1800
Dr 0.8 0 0
At STD N 00E0FFFF
Ne 2 "N-000009"
Po -6.56844 -0.9144
$EndPAD
$EndMODULE TRIMMER-Davoust
$MODULE bornier2
Po 0 0 0 15 523B1789 00000000 ~~
Li bornier2
Cd Bornier d'alimentation 2 pins
Kw DEV
Sc 0
AR 
Op 0 0 0
T0 0 -5.08 1.524 1.524 0 0.3048 N V 21 N "P***"
T1 0 5.08 1.524 1.524 0 0.3048 N V 21 N "BORN2"
DS 5.08 2.54 -5.08 2.54 0.3048 21
DS 5.08 3.81 5.08 -3.81 0.3048 21
DS 5.08 -3.81 -5.08 -3.81 0.3048 21
DS -5.08 -3.81 -5.08 3.81 0.3048 21
DS -5.08 3.81 5.08 3.81 0.3048 21
$PAD
Sh "1" R 2.54 2.54 0 0 0
Dr 1.0668 0 0
At STD N 00E0FFFF
Ne 0 ""
Po -2.54 0
$EndPAD
$PAD
Sh "2" C 2.54 2.54 0 0 0
Dr 1.0668 0 0
At STD N 00E0FFFF
Ne 0 ""
Po 2.54 0
$EndPAD
$SHAPE3D
Na "device/bornier_2.wrl"
Sc 1 1 1
Of 0 0 0
Ro 0 0 0
$EndSHAPE3D
$EndMODULE bornier2
$MODULE bornier2-Davoust
Po 0 0 0 15 523B1789 00000000 ~~
Li bornier2-Davoust
Cd Bornier d'alimentation 2 pins
Kw DEV
Sc 0
AR 
Op 0 0 0
T0 0 -5.08 1.524 1.524 0 0.3048 N V 21 N "P***"
T1 0 5.08 1.524 1.524 0 0.3048 N V 21 N "BORN2"
DS 5.08 2.54 -5.08 2.54 0.3048 21
DS 5.08 3.81 5.08 -3.81 0.3048 21
DS 5.08 -3.81 -5.08 -3.81 0.3048 21
DS -5.08 -3.81 -5.08 3.81 0.3048 21
DS -5.08 3.81 5.08 3.81 0.3048 21
$PAD
Sh "1" R 2.54 2.54 0 0 0
Dr 1.0668 0 0
At STD N 00E0FFFF
Ne 0 ""
Po -2.54 0
$EndPAD
$PAD
Sh "2" C 2.54 2.54 0 0 0
Dr 1.0668 0 0
At STD N 00E0FFFF
Ne 0 ""
Po 2.54 0
$EndPAD
$SHAPE3D
Na "device/bornier_2.wrl"
Sc 1 1 1
Of 0 0 0
Ro 0 0 0
$EndSHAPE3D
$EndMODULE bornier2-Davoust
$MODULE microSD-Davoust
Po 0 0 0 15 52B09343 00000000 ~~
Li microSD-Davoust
Sc 0
AR 
Op 0 0 0
T0 2.3 -14.9 1 1 0 0.15 N V 21 N "microSD-Davoust"
T1 1 -5.1 1 1 0 0.15 N V 21 N "VAL**"
DS -5.2 0.1 10.9 0.1 0.15 21
DS 10.9 0.1 10.9 -16.5 0.15 21
DS 10.9 -16.5 -5.2 -16.5 0.15 21
DS -5.2 -16.5 -5.3 0.2 0.15 21
DS -5.3 0.2 -5.3 0.1 0.15 21
$PAD
Sh "1" R 0.8 1.5 0 0 0
Dr 0 0 0
At SMD N 00888000
Ne 0 ""
Po 5.5 -1.1
$EndPAD
$PAD
Sh "2" R 0.8 1.5 0 0 0
Dr 0 0 0
At SMD N 00888000
Ne 0 ""
Po 4.4 -1.1
$EndPAD
$PAD
Sh "3" R 0.8 1.5 0 0 0
Dr 0 0 0
At SMD N 00888000
Ne 0 ""
Po 3.3 -1.1
$EndPAD
$PAD
Sh "4" R 0.8 1.5 0 0 0
Dr 0 0 0
At SMD N 00888000
Ne 0 ""
Po 2.2 -1.1
$EndPAD
$PAD
Sh "5" R 0.8 1.5 0 0 0
Dr 0 0 0
At SMD N 00888000
Ne 0 ""
Po 1.1 -1.1
$EndPAD
$PAD
Sh "6" R 0.8 1.5 0 0 0
Dr 0 0 0
At SMD N 00888000
Ne 0 ""
Po 0 -1.1
$EndPAD
$PAD
Sh "7" R 0.8 1.5 0 0 0
Dr 0 0 0
At SMD N 00888000
Ne 0 ""
Po -1.1 -1.1
$EndPAD
$PAD
Sh "8" R 0.8 1.5 0 0 0
Dr 0 0 0
At SMD N 00888000
Ne 0 ""
Po -2.2 -1.1
$EndPAD
$PAD
Sh "9" R 1.5 1.5 0 0 0
Dr 0 0 0
At SMD N 00888000
Ne 0 ""
Po -4 -2.6
$EndPAD
$PAD
Sh "10" R 1.5 2 0 0 0
Dr 0 0 0
At SMD N 00888000
Ne 0 ""
Po -4 -8.6
$EndPAD
$EndMODULE microSD-Davoust
$MODULE pin1-Davoust
Po 0 0 0 15 524438E7 00000000 ~~
Li pin1-Davoust
Cd module 1 pin (ou trou mecanique de percage 6 mm)
Kw DEV
Sc 0
AR douille_2mm
Op 0 0 0
T0 0.00508 -7.38124 1.016 1.016 0 0.254 N V 21 N "douille_2mm"
T1 0.0762 7.3406 1.016 1.016 0 0.254 N V 21 N "P***"
$PAD
Sh "1" C 4.49986 4.49986 0 0 0
Dr 2.60096 0 0
At STD N 00E0FFFF
Ne 0 ""
Po 0 0
$EndPAD
$SHAPE3D
Na "device/douille_4mm(red).wrl"
Sc 1.8 1.8 1.8
Of 0 0 0
Ro 0 0 0
$EndSHAPE3D
$EndMODULE pin1-Davoust
$MODULE pin_array_3x2-Davoust
Po 0 0 0 15 524D806A 00000000 ~~
Li pin_array_3x2-Davoust
Cd Double rangee de contacts 2 x 4 pins
Kw CONN
Sc 0
AR 
Op 0 0 0
T0 0 -3.81 1.016 1.016 0 0.2032 N V 21 N "PIN_ARRAY_3X2"
T1 0 3.81 1.016 1.016 0 0.2032 N I 21 N "Val**"
DS 3.81 2.54 -3.81 2.54 0.2032 21
DS -3.81 -2.54 3.81 -2.54 0.2032 21
DS 3.81 -2.54 3.81 2.54 0.2032 21
DS -3.81 2.54 -3.81 -2.54 0.2032 21
$PAD
Sh "1" R 2 2 0 0 0
Dr 0.8 0 0
At STD N 00E0FFFF
Ne 0 ""
Po -2.54 1.27
$EndPAD
$PAD
Sh "2" C 2 2 0 0 0
Dr 0.8 0 0
At STD N 00E0FFFF
Ne 0 ""
Po -2.54 -1.27
$EndPAD
$PAD
Sh "3" C 2 2 0 0 0
Dr 0.8 0 0
At STD N 00E0FFFF
Ne 0 ""
Po 0 1.27
$EndPAD
$PAD
Sh "4" C 2 2 0 0 0
Dr 0.8 0 0
At STD N 00E0FFFF
Ne 0 ""
Po 0 -1.27
$EndPAD
$PAD
Sh "5" C 2 2 0 0 0
Dr 0.8 0 0
At STD N 00E0FFFF
Ne 0 ""
Po 2.54 1.27
$EndPAD
$PAD
Sh "6" C 2 2 0 0 0
Dr 0.8 0 0
At STD N 00E0FFFF
Ne 0 ""
Po 2.54 -1.27
$EndPAD
$SHAPE3D
Na "pin_array/pins_array_3x2.wrl"
Sc 1 1 1
Of 0 0 0
Ro 0 0 0
$EndSHAPE3D
$EndMODULE pin_array_3x2-Davoust
$MODULE so8-200-Davoust
Po 0 0 0 15 529B0547 00000000 ~~
Li so8-200-Davoust
Cd SO-8
Sc 0
AR 
Op 0 0 0
At SMD
T0 0 -1.016 0.7493 0.7493 0 0.14986 N V 21 N "SO-8"
T1 0 1.016 0.7493 0.7493 0 0.14986 N V 21 N "U***"
DS -2.4 -1.35 -2.4 -2.65 0.15 21
DS 2.4 -1.35 2.4 -2.7 0.15 21
DS -2.413 -1.3812 -2.413 2.5812 0.127 21
DS -2.413 2.5812 2.413 2.5812 0.127 21
DS 2.413 2.5812 2.413 -1.3812 0.127 21
DS 2.463 -2.6812 -2.363 -2.6812 0.127 21
DS -1.905 -2.6812 -1.905 -3.7734 0.127 21
DS -0.635 -2.6812 -0.635 -3.7734 0.127 21
DS 0.635 -2.6812 0.635 -3.7734 0.127 21
DS 1.905 -3.7734 1.905 -2.6812 0.127 21
DS 1.905 2.5812 1.905 3.6734 0.127 21
DS 0.635 3.6734 0.635 2.5812 0.127 21
DS -0.635 3.6734 -0.635 2.5812 0.127 21
DS -1.905 3.6734 -1.905 2.5812 0.127 21
DC -1.6764 1.5446 -1.9558 1.9256 0.127 21
$PAD
Sh "1" R 0.635 1.5 0 0 0
Dr 0 0 0
At SMD N 00888000
Ne 0 ""
Po -1.9 3.5
$EndPAD
$PAD
Sh "2" R 0.635 1.5 0 0 0
Dr 0 0 0
At SMD N 00888000
Ne 0 ""
Po -0.65 3.5
$EndPAD
$PAD
Sh "3" R 0.635 1.5 0 0 0
Dr 0 0 0
At SMD N 00888000
Ne 0 ""
Po 0.65 3.5
$EndPAD
$PAD
Sh "4" R 0.635 1.5 0 0 0
Dr 0 0 0
At SMD N 00888000
Ne 0 ""
Po 1.9 3.5
$EndPAD
$PAD
Sh "5" R 0.635 1.5 0 0 0
Dr 0 0 0
At SMD N 00888000
Ne 0 ""
Po -2.595 -3.294
$EndPAD
$PAD
Sh "6" R 0.635 1.5 0 0 0
Dr 0 0 0
At SMD N 00888000
Ne 0 ""
Po -5.115 -3.294
$EndPAD
$PAD
Sh "7" R 0.635 1.5 0 0 0
Dr 0 0 0
At SMD N 00888000
Ne 0 ""
Po -7.635 -3.294
$EndPAD
$PAD
Sh "8" R 0.635 1.5 0 0 0
Dr 0 0 0
At SMD N 00888000
Ne 0 ""
Po -10.155 -3.294
$EndPAD
$SHAPE3D
Na "smd/smd_dil/so-8.wrl"
Sc 1 1 1
Of 0 0 0
Ro 0 0 0
$EndSHAPE3D
$EndMODULE so8-200-Davoust
$MODULE test-cms
Po 0 0 0 15 56B9D9E9 00000000 ~~
Li test-cms
Sc 0
AR 
Op 0 0 0
T0 -0.254 -0.889 1 1 0 0.15 N I 21 N "t"
T1 0.127 0.889 1 1 0 0.15 N I 21 N "VAL**"
$PAD
Sh "1" R 2 1.5 0 0 0
Dr 0 0 0
At SMD N 00888000
Ne 0 ""
Po 0 0
$EndPAD
$EndMODULE test-cms
$EndLIBRARY
